{"content":[{"id":104,"title":"Press conference of the National Consensus Commission after the first round of discussions with political parties","titleBangla":"রাজনৈতিক দলগুলোর সাথে প্রথম পর্বের আলোচনা শেষে জাতীয় ঐকমত্য কমিশনের সংবাদ সম্মেলন","serial":16,"content":null,"imageUrl":null,"pdfUrl":"1125925134_1748316218054.pdf","publishDate":"26-05-2025","archiveDate":"26-05-2025"},{"id":103,"title":"Extended discussion between Nagorik Oikya and the Commission held on consensus","titleBangla":"ঐকমত্য কমিশনের সাথে নাগরিক ঐক্যের বর্ধিত আলোচনা অনুষ্ঠিত","serial":15,"content":null,"imageUrl":null,"pdfUrl":"1010093928_1746702821267.pdf","publishDate":"07-05-2025","archiveDate":"07-05-2025"},{"id":102,"title":"\"The Commission wants to conclude the first phase of discussions with the political parties by May 15\" – Professor Ali Riaz.","titleBangla":"\"রাজনৈতিক দলগুলোর সাথে ১৫ মে'র মধ্যে প্রথম পর্যায়ের আলোচনা শেষ করতে চায় কমিশন\"- অধ্যাপক আলী রীয়াজ","serial":14,"content":null,"imageUrl":null,"pdfUrl":"1087318054_1746702552285.pdf","publishDate":"06-05-2025","archiveDate":"06-05-2025"},{"id":53,"title":"\"For the first time since independence, an opportunity has been created for everyone to participate in state-building\" — Professor Ali Riaz.","titleBangla":"\"স্বাধীনতার পর এই প্রথম সকলে মিলে রাষ্ট্র বিনির্মাণের সুযোগ তৈরি হয়েছে\"- অধ্যাপক আলী রীয়াজ","serial":13,"content":null,"imageUrl":null,"pdfUrl":"8613480_1745914648694.pdf","publishDate":"29-04-2025","archiveDate":"29-04-2025"},{"id":52,"title":"A meeting was held between the Vice-Chairman of the Consensus Commission and the Director of International IDEA.","titleBangla":"ঐকমত্য কমিশনের সহ-সভাপতির সাথে ইন্টারন্যাশনাল আইডিইএ পরিচালকের বৈঠক অনুষ্ঠিত","serial":12,"content":null,"imageUrl":null,"pdfUrl":"434212051_1745908699940.pdf","publishDate":"28-04-2025","archiveDate":"29-04-2025"},{"id":1,"title":"Fascist rule was established because there were institutional weaknesses in building a democratic state — Professor Ali Riaz.","titleBangla":"গণতান্ত্রিক রাষ্ট্র বিনির্মানে প্রাতিষ্ঠানিক দুর্বলতা ছিল বলেই ফ্যাসিবাদী শাসন প্রতিষ্ঠিত হয়েছিল- অধ্যাপক আলী রীয়াজ","serial":11,"content":null,"imageUrl":null,"pdfUrl":"1929908537_1745888386090.pdf","publishDate":"24-04-2025","archiveDate":"29-04-2025"},{"id":13,"title":"\"The united efforts of the people forced the fascist government to flee\" — Professor Ali Riaz","titleBangla":"জনগণের ঐক্যবদ্ধ প্রচেষ্টা ফ্যাসিবাদী সরকারকে পলায়নে বাধ্য করেছে\"- অধ্যাপক আলী রীয়াজ","serial":11,"content":null,"imageUrl":null,"pdfUrl":"770048050_1745797727730.pdf","publishDate":"27-04-2025","archiveDate":"27-04-2025"},{"id":10,"title":"Fascist rule was established because there were institutional weaknesses in building a democratic state — Professor Ali Riaz.","titleBangla":"গণতান্ত্রিক রাষ্ট্র বিনির্মানে প্রাতিষ্ঠানিক দুর্বলতা ছিল বলেই ফ্যাসিবাদী শাসন প্রতিষ্ঠিত হয়েছিল- অধ্যাপক আলী রীয়াজ","serial":10,"content":null,"imageUrl":null,"pdfUrl":"1929908537_1745796992197.pdf","publishDate":"24-04-2025","archiveDate":"24-04-2025"},{"id":9,"title":"Discussion held between the Consensus Commission and Bangladesh Khelafat Majlish","titleBangla":"ঐকমত্য কমিশনের সাথে বাংলাদেশ খেলাফত মজলিসের আলোচনা অনুষ্ঠিত","serial":9,"content":null,"imageUrl":null,"pdfUrl":"660677425_1745230234962.pdf","publishDate":"21-04-2025","archiveDate":"21-04-2025"},{"id":8,"title":"\"The victory achieved through democratic struggle has been trampled\" – Professor Ali Riaz.","titleBangla":"\"গণতান্ত্রিক সংগ্রামের মাধ্যমে অর্জিত বিজয়কে ভূলন্ঠিত করা হয়েছে\"- অধ্যাপক আলী রীয়াজ","serial":8,"content":null,"imageUrl":null,"pdfUrl":"1832845766_1745168252319.pdf","publishDate":"19-04-2025","archiveDate":"20-04-2025"}],"pageable":{"sort":{"sorted":true,"unsorted":false},"pageSize":10,"pageNumber":0,"offset":0,"paged":true,"unpaged":false},"last":false,"totalPages":2,"totalElements":16,"first":true,"numberOfElements":10,"sort":{"sorted":true,"unsorted":false},"size":10,"number":0}