{"content":[{"id":7,"title":"Discussions held between the Consensus Commission and two more political parties","titleBangla":"ঐকমত্য কমিশনের সাথে আরো দুই রাজনৈতিক দলের আলোচনা অনুষ্ঠিত","serial":7,"content":null,"imageUrl":null,"pdfUrl":"1925731652_1744797535013.pdf","publishDate":"15-04-2025","archiveDate":"16-04-2025"},{"id":6,"title":"Gano Forum and Jamiat Ulema-e-Islam Bangladesh have submitted reform proposals","titleBangla":"সংস্কার প্রস্তাবনা জমা দিয়েছে গণফোরাম এবং  জমিয়তে উলামায়ে ইসলাম বাংলাদেশ","serial":6,"content":null,"imageUrl":null,"pdfUrl":"1143191898_1744704604753.pdf","publishDate":"12-04-2025","archiveDate":"12-04-2025"},{"id":5,"title":"Discussion held between the Consensus Commission and Bangladesh JASAD","titleBangla":"ঐকমত্য কমিশনের সাথে বাংলাদেশ জাসদের আলোচনা অনুষ্ঠিত","serial":5,"content":null,"imageUrl":null,"pdfUrl":"1085954926_1744704150499.pdf","publishDate":"12-04-2025","archiveDate":"12-04-2025"},{"id":4,"title":"Discussion held between Zaker Party and the Consensus Commission.","titleBangla":"ঐকমত্য কমিশনের সাথে জাকের পার্টির আলোচনা অনুষ্ঠিত","serial":4,"content":null,"imageUrl":null,"pdfUrl":"1990413385_1744703950087.pdf","publishDate":"12-04-2025","archiveDate":"12-04-2025"},{"id":3,"title":"On the occasion of submitting reform proposals to the Consensus Commission of the Gono Odhikar Parishad and Bikalpadhara Bangladesh","titleBangla":"গণঅধিকার পরিষদ এবং বিকল্পধারা বাংলাদেশ-এর ঐকমত্য কমিশনের কাছে সংস্কার প্রস্তাবনা জমা প্রদান পসঙ্গে","serial":3,"content":null,"imageUrl":null,"pdfUrl":"270187921_1744266817696.pdf","publishDate":"09-04-2025","archiveDate":"10-04-2025"},{"id":2,"title":"Dialogue between Khelafat Majlis and the Consensus Commission held","titleBangla":"ঐকমত্য কমিশনের সাথে খেলাফতে মজলিসের সংলাপ","serial":2,"content":null,"imageUrl":null,"pdfUrl":"523215627_1742873558106.pdf","publishDate":"22-03-2025","archiveDate":"25-03-2025"}],"pageable":{"sort":{"sorted":true,"unsorted":false},"pageSize":10,"pageNumber":1,"offset":10,"paged":true,"unpaged":false},"last":true,"totalPages":2,"totalElements":16,"first":false,"numberOfElements":6,"sort":{"sorted":true,"unsorted":false},"size":10,"number":1}